<svg width="26" height="25" viewBox="0 0 26 25" fill="none" xmlns="http://www.w3.org/2000/svg">
<path d="M22.7222 0H3.27778C1.73611 0 0.5 1.40625 0.5 3.125V21.875C0.5 23.5938 1.73611 25 3.27778 25H8.83333V21.875H3.27778V6.25H22.7222V21.875H17.1667V25H22.7222C24.25 25 25.5 23.5938 25.5 21.875V3.125C25.5 1.40625 24.2639 0 22.7222 0ZM13 9.375L7.44444 15.625H11.6111V25H14.3889V15.625H18.5556L13 9.375Z" fill="#141414"/>
</svg>
