<svg width="21" height="20" viewBox="0 0 21 20" fill="none" xmlns="http://www.w3.org/2000/svg">
<path d="M14.5439 12.5786H13.6405L13.3203 12.2699C14.441 10.9663 15.1156 9.27387 15.1156 7.43282C15.1156 3.32762 11.788 0 7.68282 0C3.57762 0 0.25 3.32762 0.25 7.43282C0.25 11.538 3.57762 14.8656 7.68282 14.8656C9.52387 14.8656 11.2163 14.191 12.5199 13.0703L12.8286 13.3905V14.2939L18.5462 20L20.25 18.2962L14.5439 12.5786ZM7.68282 12.5786C4.83548 12.5786 2.53702 10.2802 2.53702 7.43282C2.53702 4.58548 4.83548 2.28702 7.68282 2.28702C10.5302 2.28702 12.8286 4.58548 12.8286 7.43282C12.8286 10.2802 10.5302 12.5786 7.68282 12.5786Z" fill="#3A3A3A"/>
</svg>
