<svg width="13" height="10" viewBox="0 0 13 10" fill="none" xmlns="http://www.w3.org/2000/svg">
<path d="M4.42372 7.72457L1.44345 4.79264L0.428589 5.78401L4.42372 9.71434L13 1.27714L11.9923 0.285767L4.42372 7.72457Z" fill="#141414"/>
</svg>
